          ok  Starting unison for sync easybreeding-data-sync
          ok  easybreeding-data-sync container still running, restarting unison in container
          ok  Synced /Users/fredericmoras/PhpstormProjects/easyBreeding/
     success  Unison server started
          ok  Synced /Users/fredericmoras/PhpstormProjects/easyBreeding/
Unison 2.51.2 (ocaml 4.06.1): Contacting server...
Connected [//d3e7b02dda59//app_sync -> //frederics-Air.lan//Users/fredericmoras/PhpstormProjects/easyBreeding]
Looking for changes
  Waiting for changes from server
Reconciling changes
Propagating updates
UNISON 2.51.2 (OCAML 4.06.1) started propagating changes at 23:26:51.32 on 26 Apr 2018
[BGN] Updating file docker/.docker-sync/daemon.log from /Users/fredericmoras/PhpstormProjects/easyBreeding to //d3e7b02dda59//app_sync
Failed: The source file /Users/fredericmoras/PhpstormProjects/easyBreeding/docker/.docker-sync/daemon.log
has been modified during synchronization.  Transfer aborted.
UNISON 2.51.2 (OCAML 4.06.1) finished propagating changes at 23:26:51.33 on 26 Apr 2018
Saving synchronizer state
Synchronization incomplete at 23:26:51  (0 items transferred, 0 skipped, 1 failed)
  failed: docker/.docker-sync/daemon.log
Looking for changes
  Waiting for changes from server
Reconciling changes
Propagating updates
UNISON 2.51.2 (OCAML 4.06.1) started propagating changes at 23:26:52.42 on 26 Apr 2018
[BGN] Updating file docker/.docker-sync/daemon.log from /Users/fredericmoras/PhpstormProjects/easyBreeding to //d3e7b02dda59//app_sync
Failed: The source file /Users/fredericmoras/PhpstormProjects/easyBreeding/docker/.docker-sync/daemon.log
has been modified during synchronization.  Transfer aborted.
UNISON 2.51.2 (OCAML 4.06.1) finished propagating changes at 23:26:52.44 on 26 Apr 2018
Saving synchronizer state
Synchronization incomplete at 23:26:52  (0 items transferred, 0 skipped, 1 failed)
  failed: docker/.docker-sync/daemon.log
Looking for changes
  Waiting for changes from server
Reconciling changes
Nothing to do: replicas have not changed since last sync.
Looking for changes
  Waiting for changes from server
Reconciling changes
Propagating updates
UNISON 2.51.2 (OCAML 4.06.1) started propagating changes at 23:26:57.46 on 26 Apr 2018
[BGN] Updating file docker/.docker-sync/daemon.log from /Users/fredericmoras/PhpstormProjects/easyBreeding to //d3e7b02dda59//app_sync
Failed: The source file /Users/fredericmoras/PhpstormProjects/easyBreeding/docker/.docker-sync/daemon.log
has been modified during synchronization.  Transfer aborted.
UNISON 2.51.2 (OCAML 4.06.1) finished propagating changes at 23:26:57.47 on 26 Apr 2018
Saving synchronizer state
Synchronization incomplete at 23:26:57  (0 items transferred, 0 skipped, 1 failed)
  failed: docker/.docker-sync/daemon.log
Looking for changes
  Waiting for changes from server
Reconciling changes
Nothing to do: replicas have not changed since last sync.
Looking for changes
  Waiting for changes from server
Reconciling changes
Propagating updates
UNISON 2.51.2 (OCAML 4.06.1) started propagating changes at 23:27:03.23 on 26 Apr 2018
[BGN] Updating file docker/.docker-sync/daemon.log from /Users/fredericmoras/PhpstormProjects/easyBreeding to //d3e7b02dda59//app_sync
Failed: The source file /Users/fredericmoras/PhpstormProjects/easyBreeding/docker/.docker-sync/daemon.log
has been modified during synchronization.  Transfer aborted.
UNISON 2.51.2 (OCAML 4.06.1) finished propagating changes at 23:27:03.24 on 26 Apr 2018
Saving synchronizer state
Synchronization incomplete at 23:27:03  (0 items transferred, 0 skipped, 1 failed)
  failed: docker/.docker-sync/daemon.log
Looking for changes
  Waiting for changes from server
Reconciling changes
Nothing to do: replicas have not changed since last sync.
Looking for changes
  Waiting for changes from server
Reconciling changes
Propagating updates
UNISON 2.51.2 (OCAML 4.06.1) started propagating changes at 23:27:05.36 on 26 Apr 2018
[BGN] Updating file docker/.docker-sync/daemon.log from /Users/fredericmoras/PhpstormProjects/easyBreeding to //d3e7b02dda59//app_sync
Failed: The source file /Users/fredericmoras/PhpstormProjects/easyBreeding/docker/.docker-sync/daemon.log
has been modified during synchronization.  Transfer aborted.
UNISON 2.51.2 (OCAML 4.06.1) finished propagating changes at 23:27:05.36 on 26 Apr 2018
Saving synchronizer state
Synchronization incomplete at 23:27:05  (0 items transferred, 0 skipped, 1 failed)
  failed: docker/.docker-sync/daemon.log
Looking for changes
  Waiting for changes from server
Reconciling changes
Propagating updates
UNISON 2.51.2 (OCAML 4.06.1) started propagating changes at 23:27:06.48 on 26 Apr 2018
[BGN] Updating file .idea/workspace.xml from /Users/fredericmoras/PhpstormProjects/easyBreeding to //d3e7b02dda59//app_sync
[BGN] Updating file docker/.docker-sync/daemon.log from /Users/fredericmoras/PhpstormProjects/easyBreeding to //d3e7b02dda59//app_sync
Failed: The source file /Users/fredericmoras/PhpstormProjects/easyBreeding/docker/.docker-sync/daemon.log
has been modified during synchronization.  Transfer aborted.
[END] Updating file .idea/workspace.xml
UNISON 2.51.2 (OCAML 4.06.1) finished propagating changes at 23:27:06.49 on 26 Apr 2018
Saving synchronizer state
Synchronization incomplete at 23:27:06  (1 item transferred, 0 skipped, 1 failed)
  failed: docker/.docker-sync/daemon.log
Looking for changes
  Waiting for changes from server
Reconciling changes
Propagating updates
UNISON 2.51.2 (OCAML 4.06.1) started propagating changes at 23:27:07.56 on 26 Apr 2018
[BGN] Updating file docker/.docker-sync/daemon.log from /Users/fredericmoras/PhpstormProjects/easyBreeding to //d3e7b02dda59//app_sync
Failed: The source file /Users/fredericmoras/PhpstormProjects/easyBreeding/docker/.docker-sync/daemon.log
has been modified during synchronization.  Transfer aborted.
UNISON 2.51.2 (OCAML 4.06.1) finished propagating changes at 23:27:07.57 on 26 Apr 2018
Saving synchronizer state
Synchronization incomplete at 23:27:07  (0 items transferred, 0 skipped, 1 failed)
  failed: docker/.docker-sync/daemon.log
Looking for changes
  Waiting for changes from server
Reconciling changes
Nothing to do: replicas have not changed since last sync.
Looking for changes
  Waiting for changes from server
Reconciling changes
Propagating updates
UNISON 2.51.2 (OCAML 4.06.1) started propagating changes at 23:27:11.85 on 26 Apr 2018
[BGN] Updating file docker/.docker-sync/daemon.log from /Users/fredericmoras/PhpstormProjects/easyBreeding to //d3e7b02dda59//app_sync
Failed: The source file /Users/fredericmoras/PhpstormProjects/easyBreeding/docker/.docker-sync/daemon.log
has been modified during synchronization.  Transfer aborted.
UNISON 2.51.2 (OCAML 4.06.1) finished propagating changes at 23:27:11.85 on 26 Apr 2018
Saving synchronizer state
Synchronization incomplete at 23:27:11  (0 items transferred, 0 skipped, 1 failed)
  failed: docker/.docker-sync/daemon.log
Looking for changes
  Waiting for changes from server
Reconciling changes
Nothing to do: replicas have not changed since last sync.
Looking for changes
  Waiting for changes from server
Reconciling changes
Propagating updates
UNISON 2.51.2 (OCAML 4.06.1) started propagating changes at 23:27:15.40 on 26 Apr 2018
[BGN] Updating file .idea/workspace.xml from /Users/fredericmoras/PhpstormProjects/easyBreeding to //d3e7b02dda59//app_sync
[BGN] Updating file docker/.docker-sync/daemon.log from /Users/fredericmoras/PhpstormProjects/easyBreeding to //d3e7b02dda59//app_sync
Failed: The source file /Users/fredericmoras/PhpstormProjects/easyBreeding/docker/.docker-sync/daemon.log
has been modified during synchronization.  Transfer aborted.
[END] Updating file .idea/workspace.xml
UNISON 2.51.2 (OCAML 4.06.1) finished propagating changes at 23:27:15.41 on 26 Apr 2018
Saving synchronizer state
Synchronization incomplete at 23:27:15  (1 item transferred, 0 skipped, 1 failed)
  failed: docker/.docker-sync/daemon.log
Looking for changes
  Waiting for changes from server
Reconciling changes
Nothing to do: replicas have not changed since last sync.
Fatal error: Lost connection with the server
